<?xml version="1.0" encoding="UTF-8" ?>
<testsuite tests="15" failures="0" name="com.db.demomidtier.UtilsTest" time="0.004" errors="0" skipped="0">
  <properties>
    <property name="java.runtime.name" value="Java(TM) SE Runtime Environment"/>
    <property name="sun.boot.library.path" value="C:\Java\jdk1.8.0_102\jre\bin"/>
    <property name="java.vm.version" value="25.102-b14"/>
    <property name="java.vm.vendor" value="Oracle Corporation"/>
    <property name="java.vendor.url" value="http://java.oracle.com/"/>
    <property name="path.separator" value=";"/>
    <property name="guice.disable.misplaced.annotation.check" value="true"/>
    <property name="java.vm.name" value="Java HotSpot(TM) 64-Bit Server VM"/>
    <property name="file.encoding.pkg" value="sun.io"/>
    <property name="user.script" value=""/>
    <property name="user.country" value="GB"/>
    <property name="sun.java.launcher" value="SUN_STANDARD"/>
    <property name="sun.os.patch.level" value=""/>
    <property name="java.vm.specification.name" value="Java Virtual Machine Specification"/>
    <property name="user.dir" value="C:\work\software\netbeans\a1.3\dbanalyzer-core"/>
    <property name="java.runtime.version" value="1.8.0_102-b14"/>
    <property name="java.awt.graphicsenv" value="sun.awt.Win32GraphicsEnvironment"/>
    <property name="java.endorsed.dirs" value="C:\Java\jdk1.8.0_102\jre\lib\endorsed"/>
    <property name="os.arch" value="amd64"/>
    <property name="java.io.tmpdir" value="C:\Users\Selvyn\AppData\Local\Temp\"/>
    <property name="line.separator" value="
"/>
    <property name="java.vm.specification.vendor" value="Oracle Corporation"/>
    <property name="user.variant" value=""/>
    <property name="os.name" value="Windows 10"/>
    <property name="maven.ext.class.path" value="C:\Program Files\NetBeans 8.2\java\maven-nblib\netbeans-eventspy.jar"/>
    <property name="classworlds.conf" value="C:\Program Files\NetBeans 8.2\java\maven\bin\m2.conf"/>
    <property name="sun.jnu.encoding" value="Cp1252"/>
    <property name="java.library.path" value="C:\Java\jdk1.8.0_102\bin;C:\WINDOWS\Sun\Java\bin;C:\WINDOWS\system32;C:\WINDOWS;C:\ProgramData\Oracle\Java\javapath;C:\WINDOWS\system32;C:\WINDOWS;C:\WINDOWS\System32\Wbem;C:\WINDOWS\System32\WindowsPowerShell\v1.0\;C:\Program Files\Microsoft DNX\Dnvm\;C:\Program Files\Anaconda3;C:\Program Files\Anaconda3\Scripts;C:\Program Files\Anaconda3\Library\bin;C:\pf\HashiCorp\Vagrant\bin;C:\Program Files\Amazon\AWSCLI\;C:\opscode\chefdk\bin\;C:\Program Files\Git\cmd;C:\Program Files\dotnet\;C:\Program Files\Microsoft SQL Server\130\Tools\Binn\;C:\Program Files\Lenovo\Bluetooth Software\;C:\Program Files\Lenovo\Bluetooth Software\syswow64;C:\Program Files\CMake\bin;C:\Program Files (x86)\Windows Kits\10\bin\10.0.16299.0\x64;C:\WINDOWS\System32\OpenSSH\;C:\ProgramData\chocolatey\bin;C:\Program Files\Java\jdk-10.0.2\bin;C:\Ruby22-x64\bin;C:\Java\apache-maven-3.3.9\bin;C:\Users\Selvyn\AppData\Local\Microsoft\WindowsApps;C:\pf\ArangoDB-3.0.10-win64\bin;C:\Java\jdk1.8.0_102\bin;C:\Program Files\Amazon\AWSCLI;C:\pf\putty;C:\Program Files\Docker Toolbox;C:\pf\gcc\bin;C:\Program Files\MySQL\MySQL Workbench 6.3 CE;C:\pf\apps;\current\bin;C:\Users\Selvyn\AppData\Local\Programs\Microsoft VS Code\bin;."/>
    <property name="java.specification.name" value="Java Platform API Specification"/>
    <property name="java.class.version" value="52.0"/>
    <property name="sun.management.compiler" value="HotSpot 64-Bit Tiered Compilers"/>
    <property name="os.version" value="10.0"/>
    <property name="user.home" value="C:\Users\Selvyn"/>
    <property name="user.timezone" value="Europe/London"/>
    <property name="java.awt.printerjob" value="sun.awt.windows.WPrinterJob"/>
    <property name="java.specification.version" value="1.8"/>
    <property name="file.encoding" value="Cp1252"/>
    <property name="user.name" value="Selvyn"/>
    <property name="java.class.path" value="C:\Program Files\NetBeans 8.2\java\maven\boot\plexus-classworlds-2.4.jar"/>
    <property name="java.vm.specification.version" value="1.8"/>
    <property name="sun.arch.data.model" value="64"/>
    <property name="java.home" value="C:\Java\jdk1.8.0_102\jre"/>
    <property name="sun.java.command" value="org.codehaus.plexus.classworlds.launcher.Launcher -Dmaven.ext.class.path=C:\Program Files\NetBeans 8.2\java\maven-nblib\netbeans-eventspy.jar clean install"/>
    <property name="java.specification.vendor" value="Oracle Corporation"/>
    <property name="user.language" value="en"/>
    <property name="awt.toolkit" value="sun.awt.windows.WToolkit"/>
    <property name="java.vm.info" value="mixed mode"/>
    <property name="java.version" value="1.8.0_102"/>
    <property name="java.ext.dirs" value="C:\Java\jdk1.8.0_102\jre\lib\ext;C:\WINDOWS\Sun\Java\lib\ext"/>
    <property name="sun.boot.class.path" value="C:\Java\jdk1.8.0_102\jre\lib\resources.jar;C:\Java\jdk1.8.0_102\jre\lib\rt.jar;C:\Java\jdk1.8.0_102\jre\lib\sunrsasign.jar;C:\Java\jdk1.8.0_102\jre\lib\jsse.jar;C:\Java\jdk1.8.0_102\jre\lib\jce.jar;C:\Java\jdk1.8.0_102\jre\lib\charsets.jar;C:\Java\jdk1.8.0_102\jre\lib\jfr.jar;C:\Java\jdk1.8.0_102\jre\classes"/>
    <property name="java.vendor" value="Oracle Corporation"/>
    <property name="maven.home" value="C:\Program Files\NetBeans 8.2\java\maven"/>
    <property name="file.separator" value="\"/>
    <property name="java.vendor.url.bug" value="http://bugreport.sun.com/bugreport/"/>
    <property name="sun.cpu.endian" value="little"/>
    <property name="sun.io.unicode.encoding" value="UnicodeLittle"/>
    <property name="sun.desktop" value="windows"/>
    <property name="sun.cpu.isalist" value="amd64"/>
  </properties>
  <testcase classname="com.db.demomidtier.UtilsTest" name="test_connection" time="0"/>
  <testcase classname="com.db.demomidtier.UtilsTest" name="convert_null_to_json_array" time="0"/>
  <testcase classname="com.db.demomidtier.UtilsTest" name="convert_simple_set_to_string" time="0"/>
  <testcase classname="com.db.demomidtier.UtilsTest" name="test_getter" time="0"/>
  <testcase classname="com.db.demomidtier.UtilsTest" name="test_null_resultset" time="0"/>
  <testcase classname="com.db.demomidtier.UtilsTest" name="test_execute_sql" time="0"/>
  <testcase classname="com.db.demomidtier.UtilsTest" name="test_invalid_properties" time="0.003"/>
  <testcase classname="com.db.demomidtier.UtilsTest" name="test_creation" time="0"/>
  <testcase classname="com.db.demomidtier.UtilsTest" name="test_exception_in_resultset_in_meta" time="0"/>
  <testcase classname="com.db.demomidtier.UtilsTest" name="test_execute_sql_with_param" time="0"/>
  <testcase classname="com.db.demomidtier.UtilsTest" name="convert_null_to_string" time="0"/>
  <testcase classname="com.db.demomidtier.UtilsTest" name="test_exception_in_resultset_in_meta_column" time="0"/>
  <testcase classname="com.db.demomidtier.UtilsTest" name="test_without_connection" time="0"/>
  <testcase classname="com.db.demomidtier.UtilsTest" name="convert_empty_set_to_string" time="0"/>
  <testcase classname="com.db.demomidtier.UtilsTest" name="test_exception_during_execution" time="0"/>
</testsuite>